…
```r
library(readxl)
library(forcats)

# Import raw data
fullpath <- "~/Dropbox/Manuscripts/2018 FCS and RICS/data_and_stats/HumanCartilageStudy_Patients1_5.xlsx"
df <- read_excel(fullpath)

df
```

```
## # A tibble: 78 x 12
##    Patient `Plug No.` `ICRS Score` `FCS FITC` `RICS FITC` `FCS 3k Tred`
##      <chr>      <dbl>        <dbl>      <dbl>       <dbl>         <dbl>
##  1  0621.1          1            0  134.50041   131.23879      59.49256
##  2  0621.1          2            0   99.74422    98.51734      41.59801
##  3  0621.1          3            0   97.08711   107.23506      56.23685
##  4  0621.1          4            0  117.31468   113.97305      43.15423
##  5  0621.1          5            0  103.45330   100.56960      44.43965
##  6  0621.1          6            1  114.98434   121.35642      45.96168
##  7  0621.1          7            1  104.53726   109.88129      34.45221
##  8  0621.1          8            1  126.12799   111.33091      41.48222
##  9  0621.1          9            1  115.08055   120.38930      54.62741
## 10  0621.1         10            1  105.26341   118.60383      55.05647
## # ... with 68 more rows, and 6 more variables: `RICS 3k TRed` <dbl>,
## #   `Ey-` <dbl>, `Ey+` <dbl>, M <dbl>, k0 <dbl>, `R^2` <dbl>
```
…
# Separate ICS technique and solute. Covnert to factors
df <- df %>% 
    separate(ICS_molecule, into = c("ICS","sol"))
df$ICS <-as_factor(df$ICS)
df$sol <-as_factor(df$sol)
# rearrange column order
df <- df %>%
    select(pat:score,ICS:diff,everything())

df
```

```
## # A tibble: 312 x 11
##       pat   plug score    ICS    sol      diff   modcomp    modten
##  * <fctr> <fctr> <ord> <fctr> <fctr>     <dbl>     <dbl>     <dbl>
##  1 0614.1      1     0    FCS   FITC 134.50041 0.5864212  7.353148
##  2 0614.1      2     0    FCS   FITC  99.74422 0.5676965 11.120555
##  3 0614.1      3     0    FCS   FITC  97.08711 0.4804499  7.457586
##  4 0614.1      4     0    FCS   FITC 117.31468 0.9254228 10.313120
##  5 0614.1      5     0    FCS   FITC 103.45330 0.5584437 13.658667
##  6 0614.1      6     1    FCS   FITC 114.98434 0.3972975 10.692987
##  7 0614.1      7     1    FCS   FITC 104.53726 0.4087772 12.562970
##  8 0614.1      8     1    FCS   FITC 126.12799 0.1353743  5.813416
##  9 0614.1      9     1    FCS   FITC 115.08055 0.7838630  5.965129
## 10 0614.1     10     1    FCS   FITC 105.26341 0.5142114  6.823431
## # ... with 302 more rows, and 3 more variables: perm_m <dbl>,
## #   perm_k0 <dbl>, mechr2 <dbl>
```
…
First, we need to reorganize the data since the mechanical properties are repeated 4 times with each diffusion measurement (78 samples * 4 = 312).  We'll spread the single column of diffusion measurments back across 4 columns for teh 4 combinations of solute size and imaging tenchinque.

```r
# There are repeats of mechanical properties since diffusion is measured 4 ways per sample
# Properties are only measured once.  We need to spread the data after uniting the solute and ICS columns.
dfmech <-  df %>% 
    unite("sol_ICS",c("sol","ICS")) %>% 
        spread(key = sol_ICS, value = diff)
dfmech
```

```
## # A tibble: 78 x 12
##       pat   plug score   modcomp    modten    perm_m     perm_k0    mechr2
##  * <fctr> <fctr> <ord>     <dbl>     <dbl>     <dbl>       <dbl>     <dbl>
##  1 0614.1      1     0 0.5864212  7.353148  8.566763 0.002736889 0.9984358
##  2 0614.1      2     0 0.5676965 11.120555  7.979659 0.003210007 0.9997034
##  3 0614.1      3     0 0.4804499  7.457586  6.669643 0.002208729 0.9990778
##  4 0614.1      4     0 0.9254228 10.313120  7.773044 0.002833972 0.9998175
##  5 0614.1      5     0 0.5584437 13.658667  8.327737 0.003457160 0.9998880
##  6 0614.1      6     1 0.3972975 10.692987  7.363747 0.003896604 0.9962824
##  7 0614.1      7     1 0.4087772 12.562970 10.936814 0.002320523 0.9979397
##  8 0614.1      8     1 0.1353743  5.813416  5.840793 0.001271573 0.9999033
##  9 0614.1      9     1 0.7838630  5.965129 15.617600 0.005740468 0.9979764
## 10 0614.1     10     1 0.5142114  6.823431 13.973279 0.002237006 0.9989785
## # ... with 68 more rows, and 4 more variables: `3k_FCS` <dbl>,
## #   `3k_RICS` <dbl>, FITC_FCS <dbl>, FITC_RICS <dbl>
```
…
